DATE,TITLE,SHADED,INCLUDE_IN_CYCLE,SET_CYCLE_DAY
01/01/2013,New Year’s Day,Y,N,
02/01/2013,New Year’s Day Holiday,Y,N,
26/01/2013,Australia Day,Y,N,
12/03/2013,Labour Day,Y,N,
06/04/2013,Good Friday,Y,N,
07/04/2013,Easter Saturday,Y,N,
09/04/2013,Easter Monday,Y,N,
25/04/2013,ANZAC Day,Y,N,
11/06/2013,Queen’s Birthday,Y,N,
06/11/2013,Melbourne Cup Day,Y,N,
25/12/2013,Christmas Day,Y,N,
26/12/2013,Boxing Day,Y,N,
15/03/2013,Longish Weekend,Y,N,