{
	"cycleLength" : 5,
    "periods"     : [
        {
            "title"     : "Period 1",
            "isBreak"   : false,
            "startTime" : "08:50",
            "endTime"   : "10:05",
            "cycleDay"  : null
        },
        {
            "title"     : "Period 2",
            "isBreak"   : false,
            "startTime" : "10:05",
            "endTime"   : "11:20",
            "cycleDay"  : null
        },
        {
            "title"     : "Recess",
            "isBreak"   : true,
            "startTime" : "11:20",
            "endTime"   : "11:50",
            "cycleDay"  : null
        },
        {
            "title"     : "Period 3",
            "isBreak"   : false,
            "startTime" : "11:50",
            "endTime"   : "13:05",
            "cycleDay"  : null
        },
        {
            "title"     : "Lunch",
            "isBreak"   : true,
            "startTime" : "13:05",
            "endTime"   : "13:55",
            "cycleDay"  : null
        },
        {
            "title"     : "Period 4",
            "isBreak"   : false,
            "startTime" : "13:55",
            "endTime"   : "15:10",
            "cycleDay"  : null
        }
    ]
}