{
	"cycleLength" : 5,
    "periods"     : [
        {
            "title"     : "Roll Call",
            "isBreak"   : true,
            "startTime" : "08:50",
            "endTime"   : "09:00",
            "cycleDay"  : null
        },
        {
            "title"     : "Period 1",
            "isBreak"   : false,
            "startTime" : "09:00",
            "endTime"   : "10:00",
            "cycleDay"  : null
        },
        {
            "title"     : "Period 2",
            "isBreak"   : false,
            "startTime" : "10:00",
            "endTime"   : "11:00",
            "cycleDay"  : null
        },
        {
            "title"     : "Recess",
            "isBreak"   : true,
            "startTime" : "11:00",
            "endTime"   : "11:20",
            "cycleDay"  : null
        },
        {
            "title"     : "Period 3",
            "isBreak"   : false,
            "startTime" : "11:20",
            "endTime"   : "12:20",
            "cycleDay"  : null
        },
        {
            "title"     : "Period 4",
            "isBreak"   : false,
            "startTime" : "12:20",
            "endTime"   : "13:20",
            "cycleDay"  : null
        },
        {
            "title"     : "Lunch",
            "isBreak"   : true,
            "startTime" : "13:20",
            "endTime"   : "14:05",
            "cycleDay"  : null
        },
        {
            "title"     : "Period 5 (Tuesday Sport/Groups)",
            "isBreak"   : false,
            "startTime" : "14:05",
            "endTime"   : "15:05",
            "cycleDay"  : null
        },

        {
            "title"     : "Roll Call",
            "isBreak"   : true,
            "startTime" : "08:50",
            "endTime"   : "09:00",
            "cycleDay"  : 4
        },
        {
            "title"     : "Period 1",
            "isBreak"   : false,
            "startTime" : "09:00",
            "endTime"   : "09:50",
            "cycleDay"  : 4
        },
        {
            "title"     : "Period 2",
            "isBreak"   : false,
            "startTime" : "09:50",
            "endTime"   : "10:40",
            "cycleDay"  : 4
        },
        {
            "title"     : "Recess",
            "isBreak"   : true,
            "startTime" : "10:40",
            "endTime"   : "11:00",
            "cycleDay"  : 4
        },
        {
            "title"     : "Period 3",
            "isBreak"   : false,
            "startTime" : "11:00",
            "endTime"   : "11:50",
            "cycleDay"  : 4
        },
        {
            "title"     : "Period 4 Pastoral Care",
            "isBreak"   : false,
            "startTime" : "11:50",
            "endTime"   : "12:40",
            "cycleDay"  : 4
        },
        {
            "title"     : "Lunch",
            "isBreak"   : true,
            "startTime" : "12:40",
            "endTime"   : "13:25",
            "cycleDay"  : 4
        },
        {
            "title"     : "Period 5",
            "isBreak"   : false,
            "startTime" : "13:25",
            "endTime"   : "14:15",
            "cycleDay"  : 4
        },
        {
            "title"     : "Period 6",
            "isBreak"   : false,
            "startTime" : "14:15",
            "endTime"   : "15:05",
            "cycleDay"  : 4
        }
    ]
}